D:\softwares\Maven Projects\calculator\src\main\java\com\epam\calculator\operations\Operations.java
D:\softwares\Maven Projects\calculator\src\main\java\com\epam\calculator\cal\Calci.java
D:\softwares\Maven Projects\calculator\src\main\java\com\epam\calculator\App.java
